<svg xmlns="http://www.w3.org/2000/svg" width="16.195" height="16.195" viewBox="0 0 16.195 16.195">
  <path id="Icon_material-close" data-name="Icon material-close" d="M23.7,9.131,22.064,7.5,15.6,13.967,9.131,7.5,7.5,9.131,13.967,15.6,7.5,22.064,9.131,23.7,15.6,17.229,22.064,23.7,23.7,22.064,17.229,15.6Z" transform="translate(-7.5 -7.5)"/>
</svg>
